User Guide
…
diff_results
#> # A tibble: 942 × 7
#>    gene            lfc_deseq pvalue_deseq padj_deseq lfc_dexseq pvalue…¹ padj_…²
#>    <chr>               <dbl>        <dbl>      <dbl>      <dbl>    <dbl>   <dbl>
#>  1 ENSG00000000419   0.0420   0.772       0.846          0.262   2.75e-1 5.12e-1
#>  2 ENSG00000001167  -0.391    0.000000528 0.00000323    -0.0500  6.83e-1 8.58e-1
#>  3 ENSG00000003402   0.201    0.00000472  0.0000249      0.338   2.84e-6 3.90e-5
#>  4 ENSG00000005007   0.101    0.0229      0.0516         0.484   7.98e-7 1.28e-5
#>  5 ENSG00000005020  -0.301    0.0197      0.0449         0.0989  6.02e-1 8.03e-1
#>  6 ENSG00000005810   0.138    0.0405      0.0838        -0.524   1.63e-1 3.56e-1
#>  7 ENSG00000005812   0.312    0.0000986   0.000419       0.403   3.88e-1 6.41e-1
#>  8 ENSG00000005893  -0.00949  0.751       0.829          0.466   9.51e-1 9.96e-1
#>  9 ENSG00000006607   0.0460   0.0171      0.0399         0.334   4.47e-6 5.52e-5
#> 10 ENSG00000007174   0.461    0.339       0.468          0.129   6.91e-1 8.67e-1
#> # … with 932 more rows, and abbreviated variable names ¹​pvalue_dexseq,
#> #   ²​padj_dexseq
…
ora <- paired_ora(
    paired_diff_result = diff_results,
    gene_sets = gene_sets,
    experiment_title = NULL # experiment_title - if not NULL,
    # the results will be stored in an RDS object in the 'results' folder
    )
#> Identifying differentially expressed genes
#> Running over-representation analysis
#> Joining result

ora
#> # A tibble: 555 × 18
#>    pathway       pval_…¹ padj_…² overl…³ size_…⁴ overl…⁵ size_…⁶ size_…⁷ relat…⁸
#>    <chr>           <dbl>   <dbl>   <int>   <int> <list>    <int>   <int>   <dbl>
#>  1 HP_ABNORMAL_…   0.993   0.995      10      38 <chr>       414     942   0.599
#>  2 GOBP_MICROTU…   0.925   0.945       8      25 <chr>       414     942   0.728
#>  3 GOMF_TRANSCR…   0.965   0.974      28      80 <chr>       414     942   0.796
#>  4 HP_ABNORMALI…   0.824   0.858      10      27 <chr>       414     942   0.843
#>  5 HP_ABNORMALI…   0.779   0.825      10      26 <chr>       414     942   0.875
#>  6 HP_ABNORMALI…   0.757   0.813      18      45 <chr>       414     942   0.910
#>  7 GOMF_SEQUENC…   0.722   0.790      34      82 <chr>       414     942   0.943
#>  8 GOBP_REGULAT…   0.637   0.738      14      33 <chr>       414     942   0.965
#>  9 HP_ABNORMAL_…   0.584   0.708      20      46 <chr>       414     942   0.989
#> 10 GOBP_MULTICE…   0.578   0.704      14      32 <chr>       414     942   0.995
#> # … with 545 more rows, 9 more variables: enrichment_score_deseq <dbl>,
#> #   pval_dexseq <dbl>, padj_dexseq <dbl>, overlap_dexseq <int>,
#> #   overlapGenes_dexseq <list>, size_genes_dexseq <int>,
#> #   relative_risk_dexseq <dbl>, enrichment_score_dexseq <dbl>,
#> #   enrichment_score_shift <dbl>, and abbreviated variable names ¹​pval_deseq,
#> #   ²​padj_deseq, ³​overlap_deseq, ⁴​size_geneset, ⁵​overlapGenes_deseq,
#> #   ⁶​size_genes_deseq, ⁷​size_universe, ⁸​relative_risk_deseq
…
